…
### Explore the extended dataset

We can see that the function has added additional columns on the linking
dates, and the actual values (in Kelvin), averaged across the buffer
zone.

``` r
result
#> Simple feature collection with 1000 features and 2 fields
#> Geometry type: POINT
#> Dimension:     XY
#> Bounding box:  xmin: 6.07487 ymin: 47.39451 xmax: 14.76799 ymax: 54.8779
#> Geodetic CRS:  WGS 84
#> # A tibble: 1,000 × 3
#>    date      .linked            geometry
#>    <chr>       <dbl>         <POINT [°]>
#>  1 2019-8-31    299. (11.79916 52.39787)
#>  2 2019-7-15    288. (7.603277 52.78602)
#>  3 2019-8-19    291. (8.861578 52.36923)
#>  4 2019-8-14    289. (8.890016 47.78646)
#>  5 2019-7-3     293. (12.27968 48.72903)
#>  6 2019-7-10    290.  (11.8915 48.92563)
#>  7 2019-7-18    293.  (6.916019 51.2323)
#>  8 2019-7-22    295. (10.06352 49.19944)
#>  9 2019-7-11    292.  (13.7623 51.35259)
#> 10 2019-7-5     292. (12.74709 52.06254)
#> # ℹ 990 more rows
```
…
### Explore the extended dataset

We can see that the function has added additional columns on the linking
dates, and the actual values, averaged across countries.

``` r
result
#> Simple feature collection with 241 features and 5 fields
#> Geometry type: MULTIPOLYGON
#> Dimension:     XY
#> Bounding box:  xmin: -180 ymin: -58.49229 xmax: 180 ymax: 83.59961
#> Geodetic CRS:  WGS 84
#> # A tibble: 241 × 6
#>    admin                   iso_a3 postal date  .linked                  geometry
#>    <chr>                   <chr>  <chr>  <chr>   <dbl>        <MULTIPOLYGON [°]>
#>  1 Zimbabwe                ZWE    ZW     2014… 5.76e-5 (((31.28789 -22.40205, 3…
#>  2 Zambia                  ZMB    ZM     2014… 1.20e-5 (((30.39609 -15.64307, 3…
#>  3 Yemen                   YEM    YE     2014… 8.09e-4 (((53.08564 16.64839, 52…
#>  4 Vietnam                 VNM    VN     2014… 9.12e-3 (((104.064 10.39082, 104…
#>  5 Venezuela               VEN    VE     2014… 8.93e-3 (((-60.82119 9.138379, -…
#>  6 Vatican                 VAT    V      2014… 2.70e-4 (((12.43916 41.89839, 12…
#>  7 Vanuatu                 VUT    VU     2014… 1.29e-3 (((166.7458 -14.82686, 1…
#>  8 Uzbekistan              UZB    UZ     2014… 5.66e-5 (((70.94678 42.24868, 70…
#>  9 Uruguay                 URY    UY     2014… 1.62e-3 (((-53.37061 -33.74219, …
#> 10 Federated States of Mi… FSM    FSM    2014… 5.48e-3 (((162.9832 5.325732, 16…
#> # ℹ 231 more rows
```
…
